6.907755278982137,4.6051702045384735,-1.4845765608514971,-1.4481430253079832
6.907755278982137,5.522466799677174,-1.4845765608514971,-1.464875784079196
6.907755278982137,6.232758026340002,-1.4845765608514971,-1.4759031767349953
6.907755278982137,6.907755278982137,-1.4845765608514971,-1.4838883926990023
6.907755278982137,7.397635404626887,-1.4845765608514971,-1.4868425320490286
6.907755278982137,7.6872673038029244,-1.4845765608514971,-1.4861512357757556
